Experimento09_UC_FD/simulation/qsim/cerveja.msim.vcd
$comment
	File created using the following command:
		vcd file cerveja.msim.vcd -direction
$end
$date
	Tue Jun 21 12:29:50 2022
$end
$version
	ModelSim Version 2020.1
$end
$timescale
	1ps
$end

$scope module cerveja_vlg_vec_tst $end
$var reg 1 ! Num_por_fardo_0 $end
$var reg 1 " Num_por_fardo_1 $end
$var reg 1 # Num_por_fardo_2 $end
$var reg 1 $ Num_por_fardo_3 $end
$var reg 1 % Num_por_lote_0 $end
$var reg 1 & Num_por_lote_1 $end
$var reg 1 ' Num_por_lote_2 $end
$var reg 1 ( Num_por_lote_3 $end
$var reg 1 ) Reset $end
$var reg 1 * Sensor $end
$var wire 1 + Cerveja_0 $end
$var wire 1 , Cerveja_1 $end
$var wire 1 - Cerveja_2 $end
$var wire 1 . Cerveja_3 $end
$var wire 1 / Cheio $end
$var wire 1 0 Fardo_cheio $end
$var wire 1 1 Lote_0 $end
$var wire 1 2 Lote_1 $end
$var wire 1 3 Lote_2 $end
$var wire 1 4 Lote_3 $end
$var wire 1 5 Lote_cheio $end

$scope module i1 $end
$var wire 1 6 gnd $end
$var wire 1 7 vcc $end
$var wire 1 8 unknown $end
$var tri1 1 9 devclrn $end
$var tri1 1 : devpor $end
$var tri1 1 ; devoe $end
$var wire 1 < Fardo_cheio~output_o $end
$var wire 1 = Lote_cheio~output_o $end
$var wire 1 > Cheio~output_o $end
$var wire 1 ? Cerveja_0~output_o $end
$var wire 1 @ Cerveja_1~output_o $end
$var wire 1 A Cerveja_2~output_o $end
$var wire 1 B Cerveja_3~output_o $end
$var wire 1 C Lote_0~output_o $end
$var wire 1 D Lote_1~output_o $end
$var wire 1 E Lote_2~output_o $end
$var wire 1 F Lote_3~output_o $end
$var wire 1 G Num_por_fardo_0~input_o $end
$var wire 1 H Sensor~input_o $end
$var wire 1 I Num_por_fardo_3~input_o $end
$var wire 1 J Reset~input_o $end
$var wire 1 K inst92|sub|115~combout $end
$var wire 1 L inst92|sub|111~q $end
$var wire 1 M inst92|sub|126~combout $end
$var wire 1 N inst92|sub|122~q $end
$var wire 1 O inst92|sub|131~combout $end
$var wire 1 P inst92|sub|137~combout $end
$var wire 1 Q inst92|sub|134~q $end
$var wire 1 R Num_por_fardo_2~input_o $end
$var wire 1 S Num_por_fardo_1~input_o $end
$var wire 1 T inst42|sub|109~0_combout $end
$var wire 1 U inst92|sub|68~combout $end
$var wire 1 V inst92|sub|34~q $end
$var wire 1 W inst42|sub|109~combout $end
$var wire 1 X Num_por_lote_0~input_o $end
$var wire 1 Y inst8~combout $end
$var wire 1 Z Num_por_lote_3~input_o $end
$var wire 1 [ inst67|sub|115~0_combout $end
$var wire 1 \ inst67|sub|111~q $end
$var wire 1 ] inst67|sub|126~0_combout $end
$var wire 1 ^ inst67|sub|122~q $end
$var wire 1 _ inst67|sub|131~combout $end
$var wire 1 ` inst67|sub|137~0_combout $end
$var wire 1 a inst67|sub|134~q $end
$var wire 1 b Num_por_lote_2~input_o $end
$var wire 1 c Num_por_lote_1~input_o $end
$var wire 1 d inst53|sub|109~0_combout $end
$var wire 1 e inst67|sub|68~combout $end
$var wire 1 f inst67|sub|34~q $end
$var wire 1 g inst53|sub|109~combout $end
$var wire 1 h inst~combout $end
$upscope $end
$upscope $end
$enddefinitions $end
#0
$dumpvars
1!
0"
1#
0$
1%
1&
0'
0(
1)
0*
0+
0,
0-
0.
0/
00
01
02
03
04
05
06
17
x8
19
1:
1;
0<
0=
0>
0?
0@
0A
0B
0C
0D
0E
0F
1G
0H
0I
1J
0K
0L
0M
0N
0O
0P
0Q
1R
0S
0T
0U
0V
1W
1X
1Y
0Z
0[
0\
0]
0^
0_
0`
0a
0b
1c
0d
0e
0f
1g
1h
$end
#10000
1*
1H
#20000
0)
0*
0J
0H
1e
0Y
1U
#30000
1*
1H
1V
1?
1+
0U
1K
#40000
0*
0H
#50000
1*
1H
0V
1L
1@
0?
0+
1,
1U
#60000
0*
0H
#70000
1*
1H
1V
1?
1+
0U
1M
0K
#80000
0*
0H
#90000
1*
1H
0V
1N
0L
0@
1A
0?
1T
0+
1-
0,
1U
#100000
0*
0H
#110000
1*
1H
1V
1?
0W
1+
1Y
0U
0M
1<
10
1f
1C
11
0e
1[
#120000
0*
0H
#130000
1*
1H
0V
0N
0A
0?
0T
1W
0+
0-
0Y
1U
0<
00
#140000
0*
0H
#150000
1*
1H
1V
1?
1+
0U
1K
#160000
0*
0H
#170000
1*
1H
0V
1L
1@
0?
0+
1,
1U
#180000
0*
0H
#190000
1*
1H
1V
1?
1+
0U
1M
0K
#200000
0*
0H
#210000
1*
1H
0V
1N
0L
0@
1A
0?
1T
0+
1-
0,
1U
#220000
0*
0H
#230000
1*
1H
1V
1?
0W
1+
1Y
0U
0M
1<
10
0f
1\
1D
0C
1d
01
12
1e
#240000
0*
0H
#250000
1*
1H
0V
0N
0A
0?
0T
1W
0+
0-
0Y
1U
0<
00
#260000
0*
0H
#270000
1*
1H
1V
1?
1+
0U
1K
#280000
0*
0H
#290000
1*
1H
0V
1L
1@
0?
0+
1,
1U
#300000
0*
0H
#310000
1*
1H
1V
1?
1+
0U
1M
0K
#320000
0*
0H
#330000
1*
1H
0V
1N
0L
0@
1A
0?
1T
0+
1-
0,
1U
#340000
0*
0H
#350000
1*
1H
1V
1?
0W
1+
1Y
0U
0M
1<
10
1f
1C
0h
0g
11
0e
0[
1=
1>
1/
15
#360000
0*
0H
#370000
1*
1H
0V
0N
0A
0?
0T
1h
1W
0+
0-
0Y
1U
0<
0>
0/
00
#380000
0*
0H
#390000
1*
1H
1V
1?
1+
0U
1K
#400000
0*
0H
#410000
1*
1H
0V
1L
1@
0?
0+
1,
1U
#420000
0*
0H
#430000
1*
1H
1V
1?
1+
0U
1M
0K
#440000
1)
0*
1J
0H
1Y
0M
0f
0\
0D
0C
0d
1g
01
02
0=
05
#450000
1*
1H
0V
0L
0@
0?
0+
0,
#460000
0)
0*
0J
0H
1e
0Y
1U
#470000
1*
1H
1V
1?
1+
0U
1K
#480000
0*
0H
#490000
1*
1H
0V
1L
1@
0?
0+
1,
1U
#500000
0*
0H
#510000
1*
1H
1V
1?
1+
0U
1M
0K
#520000
0*
0H
#530000
1*
1H
0V
1N
0L
0@
1A
0?
1T
0+
1-
0,
1U
#540000
0*
0H
#550000
1*
1H
1V
1?
0W
1+
1Y
0U
0M
1<
10
1f
1C
11
0e
1[
#560000
0*
0H
#570000
1*
1H
0V
0N
0A
0?
0T
1W
0+
0-
0Y
1U
0<
00
#580000
0*
0H
#590000
1*
1H
1V
1?
1+
0U
1K
#600000
0*
0H
#610000
1*
1H
0V
1L
1@
0?
0+
1,
1U
#620000
0*
0H
#630000
1*
1H
1V
1?
1+
0U
1M
0K
#640000
0*
0H
#650000
1*
1H
0V
1N
0L
0@
1A
0?
1T
0+
1-
0,
1U
#660000
0*
0H
#670000
1*
1H
1V
1?
0W
1+
1Y
0U
0M
1<
10
0f
1\
1D
0C
1d
01
12
1e
#680000
0*
0H
#690000
1*
1H
0V
0N
0A
0?
0T
1W
0+
0-
0Y
1U
0<
00
#700000
0*
0H
#710000
1*
1H
1V
1?
1+
0U
1K
#720000
0*
0H
#730000
1*
1H
0V
1L
1@
0?
0+
1,
1U
#740000
0*
0H
#750000
1*
1H
1V
1?
1+
0U
1M
0K
#760000
0*
0H
#770000
1*
1H
0V
1N
0L
0@
1A
0?
1T
0+
1-
0,
1U
#780000
0*
0H
#790000
1*
1H
1V
1?
0W
1+
1Y
0U
0M
1<
10
1f
1C
0h
0g
11
0e
0[
1=
1>
1/
15
#800000
0*
0H
#810000
1*
1H
0V
0N
0A
0?
0T
1h
1W
0+
0-
0Y
1U
0<
0>
0/
00
#820000
0*
0H
#830000
1*
1H
1V
1?
1+
0U
1K
#840000
0*
0H
#850000
1*
1H
0V
1L
1@
0?
0+
1,
1U
#860000
0*
0H
#870000
1*
1H
1V
1?
1+
0U
1M
0K
#880000
0*
0H
#890000
1*
1H
0V
1N
0L
0@
1A
0?
1T
0+
1-
0,
1U
#900000
0*
0H
#910000
1*
1H
1V
1?
0h
0W
1+
1Y
0U
0M
1<
1>
1/
10
0f
0\
0D
0C
0d
1h
1g
01
02
1e
0=
0>
0/
05
#920000
0*
0H
#930000
1*
1H
0V
0N
0A
0?
0T
1W
0+
0-
0Y
1U
0<
00
#940000
0*
0H
#950000
1*
1H
1V
1?
1+
0U
1K
#960000
0*
0H
#970000
1*
1H
0V
1L
1@
0?
0+
1,
1U
#980000
0*
0H
#990000
1*
1H
1V
1?
1+
0U
1M
0K
