Experimento03_Dec/simulation/qsim/exp03.msim.vcd
$comment
	File created using the following command:
		vcd file exp03.msim.vcd -direction
$end
$date
	Sat Apr 02 20:15:26 2022
$end
$version
	ModelSim Version 2020.1
$end
$timescale
	1ps
$end

$scope module exp03_vlg_vec_tst $end
$var reg 1 ! A $end
$var reg 1 " B $end
$var reg 1 # C $end
$var reg 1 $ D $end
$var wire 1 % Y $end

$scope module i1 $end
$var wire 1 & gnd $end
$var wire 1 ' vcc $end
$var wire 1 ( unknown $end
$var tri1 1 ) devclrn $end
$var tri1 1 * devpor $end
$var tri1 1 + devoe $end
$var wire 1 , Y~output_o $end
$var wire 1 - B~input_o $end
$var wire 1 . C~input_o $end
$var wire 1 / A~input_o $end
$var wire 1 0 D~input_o $end
$var wire 1 1 inst12~0_combout $end
$upscope $end
$upscope $end
$enddefinitions $end
#0
$dumpvars
0!
0"
0#
0$
0%
0&
1'
x(
1)
1*
1+
0,
0-
0.
0/
00
01
$end
#50000
1$
10
#100000
1#
0$
1.
00
#150000
1$
10
11
1,
1%
#200000
1"
0#
0$
1-
0.
00
01
0,
0%
#250000
1$
10
#300000
1#
0$
1.
00
11
1,
1%
#350000
1$
10
#400000
1!
0"
0#
0$
1/
0-
0.
00
01
0,
0%
#450000
1$
10
11
1,
1%
#500000
1#
0$
1.
00
01
0,
0%
#550000
1$
10
11
1,
1%
#600000
1"
0#
0$
1-
0.
00
01
0,
0%
#650000
1$
10
#700000
1#
0$
1.
00
#750000
1$
10
#800000
0!
0"
0#
0$
0/
0-
0.
00
#850000
1$
10
#900000
1#
0$
1.
00
#950000
1$
10
11
1,
1%
