Experimento03_Mux/simulation/qsim/Exp03.msim.vcd
$comment
	File created using the following command:
		vcd file Exp03.msim.vcd -direction
$end
$date
	Sat Apr 02 20:50:20 2022
$end
$version
	ModelSim Version 2020.1
$end
$timescale
	1ps
$end

$scope module Exp03_vlg_vec_tst $end
$var reg 1 ! A $end
$var reg 1 " B $end
$var reg 1 # C $end
$var reg 1 $ D $end
$var wire 1 % Y $end

$scope module i1 $end
$var wire 1 & gnd $end
$var wire 1 ' vcc $end
$var wire 1 ( unknown $end
$var tri1 1 ) devclrn $end
$var tri1 1 * devpor $end
$var tri1 1 + devoe $end
$var wire 1 , Y~output_o $end
$var wire 1 - A~input_o $end
$var wire 1 . D~input_o $end
$var wire 1 / C~input_o $end
$var wire 1 0 B~input_o $end
$var wire 1 1 inst5~0_combout $end
$upscope $end
$upscope $end
$enddefinitions $end
#0
$dumpvars
0!
0"
0#
0$
0%
0&
1'
x(
1)
1*
1+
0,
0-
0.
0/
00
01
$end
#50000
1$
1.
#100000
1#
0$
1/
0.
#150000
1$
1.
11
1,
1%
#200000
1"
0#
0$
10
0/
0.
01
0,
0%
#250000
1$
1.
#300000
1#
0$
1/
0.
11
1,
1%
#350000
1$
1.
#400000
1!
0"
0#
0$
1-
00
0/
0.
01
0,
0%
#450000
1$
1.
#500000
1#
0$
1/
0.
#550000
1$
1.
#600000
1"
0#
0$
10
0/
0.
11
1,
1%
#650000
1$
1.
01
0,
0%
#700000
1#
0$
1/
0.
11
1,
1%
#750000
1$
1.
01
0,
0%
#800000
0!
0"
0#
0$
0-
00
0/
0.
#850000
1$
1.
#900000
1#
0$
1/
0.
#950000
1$
1.
11
1,
1%
