Experimento09/simulation/qsim/cerveja.msim.vcd
$comment
	File created using the following command:
		vcd file cerveja.msim.vcd -direction
$end
$date
	Fri Jun 10 18:41:28 2022
$end
$version
	ModelSim Version 2020.1
$end
$timescale
	1ps
$end

$scope module cerveja_vlg_vec_tst $end
$var reg 1 ! RESET $end
$var reg 1 " SENSOR $end
$var wire 1 # Cerveja_1 $end
$var wire 1 $ Cerveja_2 $end
$var wire 1 % Cerveja_3 $end
$var wire 1 & Cerveja_4 $end
$var wire 1 ' FARDO $end
$var wire 1 ( LOTE $end
$var wire 1 ) Lote_1 $end
$var wire 1 * Lote_2 $end
$var wire 1 + Lote_3 $end
$var wire 1 , Lote_4 $end

$scope module i1 $end
$var wire 1 - gnd $end
$var wire 1 . vcc $end
$var wire 1 / unknown $end
$var tri1 1 0 devclrn $end
$var tri1 1 1 devpor $end
$var tri1 1 2 devoe $end
$var wire 1 3 Cerveja_4~output_o $end
$var wire 1 4 Cerveja_3~output_o $end
$var wire 1 5 Cerveja_2~output_o $end
$var wire 1 6 Cerveja_1~output_o $end
$var wire 1 7 FARDO~output_o $end
$var wire 1 8 Lote_4~output_o $end
$var wire 1 9 Lote_3~output_o $end
$var wire 1 : Lote_2~output_o $end
$var wire 1 ; Lote_1~output_o $end
$var wire 1 < LOTE~output_o $end
$var wire 1 = SENSOR~input_o $end
$var wire 1 > RESET~input_o $end
$var wire 1 ? inst|sub|126~combout $end
$var wire 1 @ inst|sub|122~q $end
$var wire 1 A inst|sub|115~combout $end
$var wire 1 B inst|sub|111~q $end
$var wire 1 C inst|sub|68~combout $end
$var wire 1 D inst|sub|34~q $end
$var wire 1 E inst|sub|137~combout $end
$var wire 1 F inst|sub|134~q $end
$var wire 1 G inst6~combout $end
$var wire 1 H inst5~combout $end
$var wire 1 I inst1|sub|115~0_combout $end
$var wire 1 J inst1|sub|111~q $end
$var wire 1 K inst1|sub|126~0_combout $end
$var wire 1 L inst1|sub|122~q $end
$var wire 1 M inst1|sub|68~combout $end
$var wire 1 N inst1|sub|34~q $end
$var wire 1 O inst1|sub|137~0_combout $end
$var wire 1 P inst1|sub|134~q $end
$var wire 1 Q inst2~combout $end
$upscope $end
$upscope $end
$enddefinitions $end
#0
$dumpvars
1!
0"
0#
0$
0%
0&
0'
0(
0)
0*
0+
0,
0-
1.
x/
10
11
12
03
04
05
06
07
08
09
0:
0;
0<
0=
1>
0?
0@
0A
0B
0C
0D
0E
0F
0G
1H
0I
0J
0K
0L
0M
0N
0O
0P
0Q
$end
#10000
1"
1=
#20000
0!
0"
0>
0=
1M
0H
1C
#30000
1"
1=
1D
13
1&
0C
1A
#40000
0"
0=
#50000
1"
1=
0D
1B
14
03
0&
1%
1C
#60000
0"
0=
#70000
1"
1=
1D
13
1&
0C
0A
1?
#80000
0"
0=
#90000
1"
1=
0D
0B
1@
15
04
03
0&
0%
1$
1C
#100000
0"
0=
#110000
1"
1=
1D
13
1&
0C
1A
#120000
0"
0=
#130000
1"
1=
0D
1B
14
03
0&
1%
1H
1G
0A
0?
17
1'
1N
18
1,
0M
1I
#140000
0"
0=
#150000
1"
1=
0B
0@
05
04
0%
0$
0H
0G
1C
07
0'
#160000
0"
0=
#170000
1"
1=
1D
13
1&
0C
1A
#180000
0"
0=
#190000
1"
1=
0D
1B
14
03
0&
1%
1C
#200000
0"
0=
#210000
1"
1=
1D
13
1&
0C
0A
1?
#220000
0"
0=
#230000
1"
1=
0D
0B
1@
15
04
03
0&
0%
1$
1C
#240000
0"
0=
#250000
1"
1=
1D
13
1&
0C
1A
#260000
0"
0=
#270000
1"
1=
0D
1B
14
03
0&
1%
1H
1G
0A
0?
17
1'
0N
1J
19
08
0,
1+
1M
#280000
1!
0"
1>
0=
0M
0I
#290000
1"
1=
0B
0@
05
04
0%
0$
0G
07
0'
#300000
0!
0"
0>
0=
1M
1I
0H
1C
#310000
1"
1=
1D
13
1&
0C
1A
#320000
0"
0=
#330000
1"
1=
0D
1B
14
03
0&
1%
1C
#340000
0"
0=
#350000
1"
1=
1D
13
1&
0C
0A
1?
#360000
0"
0=
#370000
1"
1=
0D
0B
1@
15
04
03
0&
0%
1$
1C
#380000
0"
0=
#390000
1"
1=
1D
13
1&
0C
1A
#400000
0"
0=
#410000
1"
1=
0D
1B
14
03
0&
1%
1H
1G
0A
0?
17
1'
1N
18
1,
0M
1K
0I
#420000
0"
0=
#430000
1"
1=
0B
0@
05
04
0%
0$
0H
0G
1C
07
0'
#440000
0"
0=
#450000
1"
1=
1D
13
1&
0C
1A
#460000
0"
0=
#470000
1"
1=
0D
1B
14
03
0&
1%
1C
#480000
0"
0=
#490000
1"
1=
1D
13
1&
0C
0A
1?
#500000
0"
0=
#510000
1"
1=
0D
0B
1@
15
04
03
0&
0%
1$
1C
#520000
0"
0=
#530000
1"
1=
1D
13
1&
0C
1A
#540000
0"
0=
#550000
1"
1=
0D
1B
14
03
0&
1%
1H
1G
0A
0?
17
1'
0N
1L
0J
09
1:
08
0,
1*
0+
1Q
0K
1<
1(
#560000
0"
0=
#570000
1"
1=
0B
0@
05
04
0%
0$
0Q
0H
0G
1C
07
0<
0(
0'
#580000
0"
0=
#590000
1"
1=
1D
13
1&
0C
1A
#600000
0"
0=
#610000
1"
1=
0D
1B
14
03
0&
1%
1C
#620000
0"
0=
#630000
1"
1=
1D
13
1&
0C
0A
1?
#640000
0"
0=
#650000
1"
1=
0D
0B
1@
15
04
03
0&
0%
1$
1C
#660000
0"
0=
#670000
1"
1=
1D
13
1&
0C
1A
#680000
0"
0=
#690000
1"
1=
0D
1B
14
03
0&
1%
1Q
1H
1G
0A
0?
17
1<
1(
1'
0L
0:
0*
0Q
1M
0<
0(
#700000
0"
0=
#710000
1"
1=
0B
0@
05
04
0%
0$
0H
0G
1C
07
0'
#720000
0"
0=
#730000
1"
1=
1D
13
1&
0C
1A
#740000
0"
0=
#750000
1"
1=
0D
1B
14
03
0&
1%
1C
#760000
0"
0=
#770000
1"
1=
1D
13
1&
0C
0A
1?
#780000
0"
0=
#790000
1"
1=
0D
0B
1@
15
04
03
0&
0%
1$
1C
#800000
0"
0=
#810000
1"
1=
1D
13
1&
0C
1A
#820000
0"
0=
#830000
1"
1=
0D
1B
14
03
0&
1%
1H
1G
0A
0?
17
1'
1N
18
1,
0M
1I
#840000
0"
0=
#850000
1"
1=
0B
0@
05
04
0%
0$
0H
0G
1C
07
0'
#860000
0"
0=
#870000
1"
1=
1D
13
1&
0C
1A
#880000
0"
0=
#890000
1"
1=
0D
1B
14
03
0&
1%
1C
#900000
0"
0=
#910000
1"
1=
1D
13
1&
0C
0A
1?
#920000
0"
0=
#930000
1"
1=
0D
0B
1@
15
04
03
0&
0%
1$
1C
#940000
0"
0=
#950000
1"
1=
1D
13
1&
0C
1A
#960000
0"
0=
#970000
1"
1=
0D
1B
14
03
0&
1%
1H
1G
0A
0?
17
1'
0N
1J
19
08
0,
1+
1M
#980000
0"
0=
#990000
1"
1=
0B
0@
05
04
0%
0$
0H
0G
1C
07
0'
