Experimento04_Contador_2/simulation/qsim/Exp04_Cont2.msim.vcd
$comment
	File created using the following command:
		vcd file Exp04_Cont2.msim.vcd -direction
$end
$date
	Wed Apr 20 09:51:38 2022
$end
$version
	ModelSim Version 2020.1
$end
$timescale
	1ps
$end

$scope module Exp04_Cont2_vlg_vec_tst $end
$var reg 1 ! CLK $end
$var wire 1 " Q0 $end
$var wire 1 # Q1 $end
$var wire 1 $ Q2 $end
$var wire 1 % Q3 $end

$scope module i1 $end
$var wire 1 & gnd $end
$var wire 1 ' vcc $end
$var wire 1 ( unknown $end
$var tri1 1 ) devclrn $end
$var tri1 1 * devpor $end
$var tri1 1 + devoe $end
$var wire 1 , Q0~output_o $end
$var wire 1 - Q1~output_o $end
$var wire 1 . Q2~output_o $end
$var wire 1 / Q3~output_o $end
$var wire 1 0 CLK~input_o $end
$var wire 1 1 inst|sub|126~0_combout $end
$var wire 1 2 inst|sub|122~q $end
$var wire 1 3 inst|sub|137~combout $end
$var wire 1 4 inst|sub|134~q $end
$var wire 1 5 inst|sub|115~combout $end
$var wire 1 6 inst|sub|111~q $end
$var wire 1 7 inst|sub|68~combout $end
$var wire 1 8 inst|sub|34~q $end
$upscope $end
$upscope $end
$enddefinitions $end
#0
$dumpvars
0!
0"
0#
0$
0%
0&
1'
x(
1)
1*
1+
0,
0-
0.
0/
00
01
02
03
04
05
06
17
08
$end
#30000
1!
10
18
1,
1"
07
15
#60000
0!
00
#90000
1!
10
08
16
1-
0,
0"
1#
17
#120000
0!
00
#150000
1!
10
18
1,
1"
07
05
11
#180000
0!
00
#210000
1!
10
08
06
12
1.
0-
0,
0"
0#
1$
17
#240000
0!
00
#270000
1!
10
18
1,
1"
07
15
#300000
0!
00
#330000
1!
10
08
16
1-
0,
0"
1#
17
#360000
0!
00
#390000
1!
10
18
1,
1"
07
05
13
01
#420000
0!
00
#450000
1!
10
08
06
14
02
0.
1/
0-
0,
0"
0#
1%
0$
17
#480000
0!
00
#510000
1!
10
18
1,
1"
07
15
#540000
0!
00
#570000
1!
10
08
16
1-
0,
0"
1#
05
03
#600000
0!
00
#630000
1!
10
06
04
0/
0-
0#
0%
17
#660000
0!
00
#690000
1!
10
18
1,
1"
07
15
#720000
0!
00
#750000
1!
10
08
16
1-
0,
0"
1#
17
#780000
0!
00
#810000
1!
10
18
1,
1"
07
05
11
#840000
0!
00
#870000
1!
10
08
06
12
1.
0-
0,
0"
0#
1$
17
#900000
0!
00
#930000
1!
10
18
1,
1"
07
15
#960000
0!
00
#990000
1!
10
08
16
1-
0,
0"
1#
17
